position ( [ 0 , 0 ] )
supply ( 20 )
s ( 3 )
m ( 20 )
g ( 666 )
t ( 3 )
w ( 7 )
p ( 3 )
l ( 30 )
ll ( 20 )
x ( 4 )
y ( 1 )
revealed ( [ 0 , 0 ] )
revealed ( [ 0 , 1 ] )
revealed ( [ 0 , 2 ] )
revealed ( [ 0 , 3 ] )
revealed ( [ 1 , 0 ] )
revealed ( [ 1 , 1 ] )
revealed ( [ 1 , 2 ] )
revealed ( [ 2 , 0 ] )
revealed ( [ 2 , 1 ] )
revealed ( [ 2 , 2 ] )
revealed ( [ 3 , 0 ] )