position ( [ 23 , 2 ] )
supply ( 17 )
s ( 3 )
m ( 20 )
g ( 666 )
t ( 3 )
w ( 7 )
p ( 3 )
l ( 30 )
ll ( 20 )
x ( 4 )
y ( 1 )
revealed ( [ 0 , 0 ] )
revealed ( [ 0 , 1 ] )
revealed ( [ 0 , 2 ] )
revealed ( [ 0 , 3 ] )
revealed ( [ 1 , 0 ] )
revealed ( [ 1 , 1 ] )
revealed ( [ 1 , 2 ] )
revealed ( [ 1 , 3 ] )
revealed ( [ 1 , 4 ] )
revealed ( [ 2 , 0 ] )
revealed ( [ 2 , 1 ] )
revealed ( [ 2 , 2 ] )
revealed ( [ 2 , 3 ] )
revealed ( [ 2 , 4 ] )
revealed ( [ 2 , 5 ] )
revealed ( [ 2 , 6 ] )
revealed ( [ 3 , 0 ] )
revealed ( [ 3 , 1 ] )
revealed ( [ 3 , 2 ] )
revealed ( [ 3 , 3 ] )
revealed ( [ 3 , 4 ] )
revealed ( [ 3 , 5 ] )
revealed ( [ 3 , 6 ] )
revealed ( [ 3 , 7 ] )
revealed ( [ 3 , 8 ] )
revealed ( [ 4 , 0 ] )
revealed ( [ 4 , 1 ] )
revealed ( [ 4 , 2 ] )
revealed ( [ 4 , 3 ] )
revealed ( [ 4 , 4 ] )
revealed ( [ 4 , 5 ] )
revealed ( [ 4 , 6 ] )
revealed ( [ 4 , 7 ] )
revealed ( [ 4 , 8 ] )
revealed ( [ 5 , 0 ] )
revealed ( [ 5 , 1 ] )
revealed ( [ 5 , 2 ] )
revealed ( [ 5 , 3 ] )
revealed ( [ 5 , 4 ] )
revealed ( [ 5 , 5 ] )
revealed ( [ 5 , 6 ] )
revealed ( [ 5 , 7 ] )
revealed ( [ 5 , 8 ] )
revealed ( [ 5 , 9 ] )
revealed ( [ 6 , 0 ] )
revealed ( [ 6 , 1 ] )
revealed ( [ 6 , 2 ] )
revealed ( [ 6 , 3 ] )
revealed ( [ 6 , 4 ] )
revealed ( [ 6 , 5 ] )
revealed ( [ 6 , 6 ] )
revealed ( [ 6 , 7 ] )
revealed ( [ 6 , 8 ] )
revealed ( [ 6 , 9 ] )
revealed ( [ 6 , 10 ] )
revealed ( [ 6 , 11 ] )
revealed ( [ 7 , 0 ] )
revealed ( [ 7 , 1 ] )
revealed ( [ 7 , 2 ] )
revealed ( [ 7 , 3 ] )
revealed ( [ 7 , 4 ] )
revealed ( [ 7 , 5 ] )
revealed ( [ 7 , 6 ] )
revealed ( [ 7 , 7 ] )
revealed ( [ 7 , 8 ] )
revealed ( [ 7 , 9 ] )
revealed ( [ 7 , 10 ] )
revealed ( [ 7 , 11 ] )
revealed ( [ 7 , 12 ] )
revealed ( [ 7 , 13 ] )
revealed ( [ 7 , 14 ] )
revealed ( [ 7 , 15 ] )
revealed ( [ 7 , 16 ] )
revealed ( [ 7 , 17 ] )
revealed ( [ 7 , 18 ] )
revealed ( [ 8 , 2 ] )
revealed ( [ 8 , 3 ] )
revealed ( [ 8 , 4 ] )
revealed ( [ 8 , 5 ] )
revealed ( [ 8 , 6 ] )
revealed ( [ 8 , 7 ] )
revealed ( [ 8 , 8 ] )
revealed ( [ 8 , 9 ] )
revealed ( [ 8 , 10 ] )
revealed ( [ 8 , 11 ] )
revealed ( [ 8 , 12 ] )
revealed ( [ 8 , 13 ] )
revealed ( [ 8 , 14 ] )
revealed ( [ 8 , 15 ] )
revealed ( [ 8 , 16 ] )
revealed ( [ 8 , 17 ] )
revealed ( [ 8 , 18 ] )
revealed ( [ 8 , 19 ] )
revealed ( [ 8 , 20 ] )
revealed ( [ 9 , 3 ] )
revealed ( [ 9 , 4 ] )
revealed ( [ 9 , 5 ] )
revealed ( [ 9 , 6 ] )
revealed ( [ 9 , 7 ] )
revealed ( [ 9 , 8 ] )
revealed ( [ 9 , 9 ] )
revealed ( [ 9 , 10 ] )
revealed ( [ 9 , 11 ] )
revealed ( [ 9 , 12 ] )
revealed ( [ 9 , 13 ] )
revealed ( [ 9 , 14 ] )
revealed ( [ 9 , 15 ] )
revealed ( [ 9 , 16 ] )
revealed ( [ 9 , 17 ] )
revealed ( [ 9 , 18 ] )
revealed ( [ 9 , 19 ] )
revealed ( [ 9 , 20 ] )
revealed ( [ 10 , 3 ] )
revealed ( [ 10 , 4 ] )
revealed ( [ 10 , 5 ] )
revealed ( [ 10 , 6 ] )
revealed ( [ 10 , 7 ] )
revealed ( [ 10 , 8 ] )
revealed ( [ 10 , 9 ] )
revealed ( [ 10 , 10 ] )
revealed ( [ 10 , 11 ] )
revealed ( [ 10 , 12 ] )
revealed ( [ 10 , 13 ] )
revealed ( [ 10 , 14 ] )
revealed ( [ 10 , 15 ] )
revealed ( [ 10 , 16 ] )
revealed ( [ 10 , 17 ] )
revealed ( [ 10 , 18 ] )
revealed ( [ 10 , 19 ] )
revealed ( [ 10 , 20 ] )
revealed ( [ 10 , 21 ] )
revealed ( [ 11 , 5 ] )
revealed ( [ 11 , 6 ] )
revealed ( [ 11 , 7 ] )
revealed ( [ 11 , 8 ] )
revealed ( [ 11 , 9 ] )
revealed ( [ 11 , 10 ] )
revealed ( [ 11 , 11 ] )
revealed ( [ 11 , 12 ] )
revealed ( [ 11 , 13 ] )
revealed ( [ 11 , 14 ] )
revealed ( [ 11 , 15 ] )
revealed ( [ 11 , 16 ] )
revealed ( [ 11 , 17 ] )
revealed ( [ 11 , 18 ] )
revealed ( [ 11 , 19 ] )
revealed ( [ 11 , 20 ] )
revealed ( [ 11 , 21 ] )
revealed ( [ 12 , 7 ] )
revealed ( [ 12 , 8 ] )
revealed ( [ 12 , 9 ] )
revealed ( [ 12 , 10 ] )
revealed ( [ 12 , 11 ] )
revealed ( [ 12 , 12 ] )
revealed ( [ 12 , 13 ] )
revealed ( [ 12 , 14 ] )
revealed ( [ 12 , 15 ] )
revealed ( [ 12 , 16 ] )
revealed ( [ 12 , 17 ] )
revealed ( [ 12 , 18 ] )
revealed ( [ 12 , 19 ] )
revealed ( [ 12 , 20 ] )
revealed ( [ 12 , 21 ] )
revealed ( [ 12 , 22 ] )
revealed ( [ 13 , 9 ] )
revealed ( [ 13 , 10 ] )
revealed ( [ 13 , 11 ] )
revealed ( [ 13 , 12 ] )
revealed ( [ 13 , 13 ] )
revealed ( [ 13 , 14 ] )
revealed ( [ 13 , 15 ] )
revealed ( [ 13 , 16 ] )
revealed ( [ 13 , 17 ] )
revealed ( [ 13 , 18 ] )
revealed ( [ 13 , 19 ] )
revealed ( [ 13 , 20 ] )
revealed ( [ 13 , 21 ] )
revealed ( [ 13 , 22 ] )
revealed ( [ 14 , 10 ] )
revealed ( [ 14 , 11 ] )
revealed ( [ 14 , 12 ] )
revealed ( [ 14 , 13 ] )
revealed ( [ 14 , 14 ] )
revealed ( [ 14 , 15 ] )
revealed ( [ 14 , 16 ] )
revealed ( [ 14 , 17 ] )
revealed ( [ 14 , 18 ] )
revealed ( [ 14 , 19 ] )
revealed ( [ 14 , 20 ] )
revealed ( [ 14 , 21 ] )
revealed ( [ 14 , 22 ] )
revealed ( [ 14 , 23 ] )
revealed ( [ 15 , 7 ] )
revealed ( [ 15 , 8 ] )
revealed ( [ 15 , 10 ] )
revealed ( [ 15 , 11 ] )
revealed ( [ 15 , 12 ] )
revealed ( [ 15 , 13 ] )
revealed ( [ 15 , 14 ] )
revealed ( [ 15 , 15 ] )
revealed ( [ 15 , 16 ] )
revealed ( [ 15 , 17 ] )
revealed ( [ 15 , 18 ] )
revealed ( [ 15 , 19 ] )
revealed ( [ 15 , 20 ] )
revealed ( [ 15 , 21 ] )
revealed ( [ 15 , 22 ] )
revealed ( [ 15 , 23 ] )
revealed ( [ 16 , 5 ] )
revealed ( [ 16 , 6 ] )
revealed ( [ 16 , 7 ] )
revealed ( [ 16 , 8 ] )
revealed ( [ 16 , 9 ] )
revealed ( [ 16 , 10 ] )
revealed ( [ 16 , 11 ] )
revealed ( [ 16 , 12 ] )
revealed ( [ 16 , 13 ] )
revealed ( [ 16 , 14 ] )
revealed ( [ 16 , 15 ] )
revealed ( [ 16 , 16 ] )
revealed ( [ 16 , 17 ] )
revealed ( [ 16 , 18 ] )
revealed ( [ 16 , 19 ] )
revealed ( [ 16 , 20 ] )
revealed ( [ 16 , 21 ] )
revealed ( [ 16 , 22 ] )
revealed ( [ 16 , 23 ] )
revealed ( [ 17 , 5 ] )
revealed ( [ 17 , 6 ] )
revealed ( [ 17 , 7 ] )
revealed ( [ 17 , 8 ] )
revealed ( [ 17 , 9 ] )
revealed ( [ 17 , 10 ] )
revealed ( [ 17 , 11 ] )
revealed ( [ 17 , 12 ] )
revealed ( [ 17 , 13 ] )
revealed ( [ 17 , 14 ] )
revealed ( [ 17 , 15 ] )
revealed ( [ 17 , 16 ] )
revealed ( [ 17 , 17 ] )
revealed ( [ 17 , 18 ] )
revealed ( [ 17 , 19 ] )
revealed ( [ 17 , 20 ] )
revealed ( [ 17 , 21 ] )
revealed ( [ 17 , 22 ] )
revealed ( [ 17 , 23 ] )
revealed ( [ 18 , 4 ] )
revealed ( [ 18 , 5 ] )
revealed ( [ 18 , 6 ] )
revealed ( [ 18 , 7 ] )
revealed ( [ 18 , 8 ] )
revealed ( [ 18 , 9 ] )
revealed ( [ 18 , 10 ] )
revealed ( [ 18 , 11 ] )
revealed ( [ 18 , 12 ] )
revealed ( [ 18 , 13 ] )
revealed ( [ 18 , 14 ] )
revealed ( [ 18 , 15 ] )
revealed ( [ 18 , 16 ] )
revealed ( [ 18 , 17 ] )
revealed ( [ 18 , 18 ] )
revealed ( [ 18 , 19 ] )
revealed ( [ 18 , 20 ] )
revealed ( [ 18 , 21 ] )
revealed ( [ 18 , 22 ] )
revealed ( [ 18 , 23 ] )
revealed ( [ 19 , 3 ] )
revealed ( [ 19 , 4 ] )
revealed ( [ 19 , 5 ] )
revealed ( [ 19 , 6 ] )
revealed ( [ 19 , 7 ] )
revealed ( [ 19 , 8 ] )
revealed ( [ 19 , 9 ] )
revealed ( [ 19 , 10 ] )
revealed ( [ 19 , 11 ] )
revealed ( [ 19 , 12 ] )
revealed ( [ 19 , 13 ] )
revealed ( [ 19 , 14 ] )
revealed ( [ 19 , 15 ] )
revealed ( [ 19 , 16 ] )
revealed ( [ 19 , 17 ] )
revealed ( [ 19 , 18 ] )
revealed ( [ 19 , 19 ] )
revealed ( [ 19 , 20 ] )
revealed ( [ 19 , 21 ] )
revealed ( [ 19 , 22 ] )
revealed ( [ 20 , 1 ] )
revealed ( [ 20 , 2 ] )
revealed ( [ 20 , 3 ] )
revealed ( [ 20 , 4 ] )
revealed ( [ 20 , 5 ] )
revealed ( [ 20 , 6 ] )
revealed ( [ 20 , 7 ] )
revealed ( [ 20 , 8 ] )
revealed ( [ 20 , 9 ] )
revealed ( [ 20 , 10 ] )
revealed ( [ 20 , 11 ] )
revealed ( [ 20 , 12 ] )
revealed ( [ 20 , 13 ] )
revealed ( [ 20 , 14 ] )
revealed ( [ 20 , 15 ] )
revealed ( [ 20 , 16 ] )
revealed ( [ 20 , 17 ] )
revealed ( [ 20 , 18 ] )
revealed ( [ 20 , 19 ] )
revealed ( [ 20 , 20 ] )
revealed ( [ 20 , 21 ] )
revealed ( [ 20 , 22 ] )
revealed ( [ 20 , 23 ] )
revealed ( [ 21 , 0 ] )
revealed ( [ 21 , 1 ] )
revealed ( [ 21 , 2 ] )
revealed ( [ 21 , 3 ] )
revealed ( [ 21 , 4 ] )
revealed ( [ 21 , 5 ] )
revealed ( [ 21 , 6 ] )
revealed ( [ 21 , 7 ] )
revealed ( [ 21 , 8 ] )
revealed ( [ 21 , 9 ] )
revealed ( [ 21 , 10 ] )
revealed ( [ 21 , 11 ] )
revealed ( [ 21 , 12 ] )
revealed ( [ 21 , 13 ] )
revealed ( [ 21 , 14 ] )
revealed ( [ 21 , 15 ] )
revealed ( [ 21 , 16 ] )
revealed ( [ 21 , 17 ] )
revealed ( [ 21 , 18 ] )
revealed ( [ 21 , 19 ] )
revealed ( [ 21 , 20 ] )
revealed ( [ 21 , 21 ] )
revealed ( [ 21 , 22 ] )
revealed ( [ 22 , 0 ] )
revealed ( [ 22 , 1 ] )
revealed ( [ 22 , 2 ] )
revealed ( [ 22 , 3 ] )
revealed ( [ 22 , 4 ] )
revealed ( [ 22 , 5 ] )
revealed ( [ 22 , 6 ] )
revealed ( [ 22 , 7 ] )
revealed ( [ 22 , 8 ] )
revealed ( [ 22 , 9 ] )
revealed ( [ 22 , 10 ] )
revealed ( [ 22 , 11 ] )
revealed ( [ 22 , 12 ] )
revealed ( [ 22 , 17 ] )
revealed ( [ 22 , 18 ] )
revealed ( [ 22 , 19 ] )
revealed ( [ 22 , 20 ] )
revealed ( [ 22 , 21 ] )
revealed ( [ 22 , 22 ] )
revealed ( [ 23 , 0 ] )
revealed ( [ 23 , 1 ] )
revealed ( [ 23 , 2 ] )
revealed ( [ 23 , 3 ] )
revealed ( [ 23 , 4 ] )
revealed ( [ 23 , 5 ] )
revealed ( [ 23 , 6 ] )
revealed ( [ 23 , 7 ] )
revealed ( [ 23 , 8 ] )
revealed ( [ 23 , 19 ] )
revealed ( [ 23 , 20 ] )
revealed ( [ 24 , 0 ] )
revealed ( [ 24 , 1 ] )
revealed ( [ 24 , 2 ] )
revealed ( [ 24 , 3 ] )
revealed ( [ 24 , 4 ] )
revealed ( [ 24 , 5 ] )
revealed ( [ 24 , 6 ] )
revealed ( [ 24 , 7 ] )
revealed ( [ 25 , 0 ] )
revealed ( [ 25 , 1 ] )
revealed ( [ 25 , 2 ] )
revealed ( [ 25 , 3 ] )
revealed ( [ 25 , 4 ] )
revealed ( [ 25 , 5 ] )
revealed ( [ 25 , 6 ] )
revealed ( [ 25 , 7 ] )
revealed ( [ 26 , 2 ] )
revealed ( [ 26 , 3 ] )
revealed ( [ 26 , 5 ] )
collected ( [ 6 , 5 ] )
collected ( [ 7 , 6 ] )
collected ( [ 8 , 7 ] )
collected ( [ 9 , 9 ] )
collected ( [ 14 , 19 ] )
collected ( [ 14 , 20 ] )
collected ( [ 16 , 12 ] )
collected ( [ 16 , 14 ] )
collected ( [ 16 , 15 ] )
collected ( [ 19 , 9 ] )
collected ( [ 19 , 18 ] )
collected ( [ 20 , 19 ] )
collected ( [ 20 , 20 ] )
emerging ( [ 5 , 5 ] , [ 5 , 5 ] , [ 5 , 5 ] , [ 2 , 5 ] )
emerging ( [ 6 , 8 ] , [ 6 , 8 ] , [ 6 , 8 ] , [ 3 , 8 ] )
emerging ( [ 7 , 7 ] , [ 7 , 7 ] , [ 7 , 7 ] , [ 4 , 7 ] )
emerging ( [ 9 , 17 ] , [ 9 , 17 ] , [ 8 , 17 ] , [ 6 , 17 ] )
emerging ( [ 10 , 6 ] , [ 10 , 6 ] , [ 10 , 6 ] , [ 7 , 6 ] )
emerging ( [ 10 , 18 ] , [ 10 , 18 ] , [ 10 , 18 ] , [ 10 , 21 ] )
emerging ( [ 10 , 21 ] , [ 10 , 21 ] , [ 10 , 21 ] , [ 10 , 24 ] )
emerging ( [ 11 , 16 ] , [ 11 , 16 ] , [ 11 , 16 ] , [ 11 , 19 ] )
emerging ( [ 12 , 16 ] , [ 12 , 16 ] , [ 12 , 18 ] , [ 12 , 19 ] )
emerging ( [ 13 , 12 ] , [ 13 , 12 ] , [ 11 , 12 ] , [ 10 , 12 ] )
emerging ( [ 24 , 3 ] , [ 24 , 3 ] , [ 25 , 3 ] , [ 27 , 3 ] )
disappearing ( [ 7 , 6 ] , [ 4 , 6 ] , [ 4 , 6 ] , [ 4 , 6 ] )
disappearing ( [ 7 , 16 ] , [ 5 , 16 ] , [ 4 , 16 ] , [ 4 , 16 ] )
disappearing ( [ 13 , 21 ] , [ 13 , 22 ] , [ 13 , 24 ] , [ 13 , 24 ] )
disappearing ( [ 15 , 23 ] , [ 15 , 24 ] , [ 15 , 24 ] , [ 15 , 26 ] )
disappearing ( [ 19 , 15 ] , [ 19 , 17 ] , [ 19 , 18 ] , [ 19 , 18 ] )
disappearing ( [ 20 , 7 ] , [ 18 , 7 ] , [ 17 , 7 ] , [ 17 , 7 ] )
disappearing ( [ 20 , 9 ] , [ 20 , 10 ] , [ 20 , 12 ] , [ 20 , 12 ] )
disappearing ( [ 20 , 20 ] , [ 20 , 22 ] , [ 20 , 22 ] , [ 20 , 23 ] )
disappearing ( [ 20 , 24 ] , [ 20 , 25 ] , [ 20 , 26 ] , [ 20 , 27 ] )
disappearing ( [ 21 , 4 ] , [ 24 , 4 ] , [ 24 , 4 ] , [ 24 , 4 ] )
disappearing ( [ 25 , 7 ] , [ 27 , 7 ] , [ 28 , 7 ] , [ 28 , 7 ] )
disappearing ( [ 26 , 16 ] , [ 26 , 19 ] , [ 26 , 19 ] , [ 26 , 19 ] )